<svg id="Layer_1" data-name="Layer 1" xmlns="http://www.w3.org/2000/svg" viewBox="0 0 13.48 18">
  <defs>
    <style>
      .cls-1 {
      fill: none;
      stroke: #f39c12;
      stroke-linecap: round;
      stroke-linejoin: round;
      stroke-width: 2px;
      }
    </style>
  </defs>
  <title>Assets</title>
  <path class="cls-1" d="M1,1V17H12.48V4.09L9.39,1H1ZM9.39,4.09m3.09,0-4.22-2v3h3" />
</svg>