<svg id="Layer_1" data-name="Layer 1" xmlns="http://www.w3.org/2000/svg" viewBox="0 0 20 22">
    <defs>
        <style>
            .cls-1 {
                fill: none;
                stroke: #eba03b;
                stroke-linecap: round;
                stroke-linejoin: round;
                stroke-width: 2px;
            }
        </style>
    </defs>
    <title>3_Assets_DisplayMeeting</title>
    <circle class="cls-1" cx="10" cy="9.03" r="1.78" />
    <path class="cls-1" d="M13.55,14.75a3.55,3.55,0,1,0-7.11,0Z" />
    <path class="cls-1" d="M10.06,2h0a.42.42,0,0,0-.35.19c-.77,1.12-3.21,2.07-6,2.08H3.63a.42.42,0,0,0-.42.34A37.58,37.58,0,0,0,2.58,8.8c-.21,2.3-.26,5,.67,6.72.7,1.3,2.34,2.35,3.81,3.14a26,26,0,0,0,2.65,1.25.49.49,0,0,0,.56,0h0a25.36,25.36,0,0,0,2.65-1.25,9.37,9.37,0,0,0,3.81-3.14c.93-1.74.88-4.43.67-6.72a37.44,37.44,0,0,0-.63-4.19.42.42,0,0,0-.43-.34h0c-2.68,0-5-.91-5.86-2a.42.42,0,0,0-.4-.28Z" />
</svg>