<svg id="Layer_1" data-name="Layer 1" xmlns="http://www.w3.org/2000/svg" viewBox="0 0 20 20">
  <defs>
    <style>
      .cls-1 {
      fill: none;
      stroke: #f39c12;
      stroke-linecap: round;
      stroke-linejoin: round;
      stroke-width: 2px;
      }
    </style>
  </defs>
  <title>3_Assets_DisplayMeeting</title>
  <line class="cls-1" x1="13" y1="1" x2="7" y2="1" />
  <path class="cls-1" d="M10,5a7,7,0,1,0,7,7,7,7,0,0,0-7-7" />
  <line class="cls-1" x1="10" y1="8" x2="10" y2="12" />
  <line class="cls-1" x1="11.73" y1="13" x2="10" y2="12" />
</svg>