<svg id="Layer_1" data-name="Layer 1" xmlns="http://www.w3.org/2000/svg" viewBox="0 0 36 23">
  <defs>
    <style>
      .cls-1 {
      fill: none;
      stroke: #f39c12;
      stroke-linecap: round;
      stroke-linejoin: round;
      stroke-width: 2px;
      }
    </style>
  </defs>
  <title>Assets_ManageMeeting</title>
  <polyline class="cls-1" points="27.99 5.5 22.02 11.48 28.02 17.5" />
  <line class="cls-1" x1="34.02" y1="11.48" x2="22.02" y2="11.48" />
  <circle class="cls-1" cx="10.98" cy="6.5" r="4.5" />
  <path class="cls-1" d="M20,21A9,9,0,1,0,2,21Z" />
</svg>