<?xml version="1.0" encoding="utf-8"?>
<!-- Generator: Adobe Illustrator 21.0.0, SVG Export Plug-In . SVG Version: 6.00 Build 0)  -->
<svg version="1.1" id="Layer_1" xmlns="http://www.w3.org/2000/svg" xmlns:xlink="http://www.w3.org/1999/xlink" x="0px" y="0px"
	 viewBox="0 0 60 60" style="enable-background:new 0 0 60 60;" xml:space="preserve">
<style type="text/css">
	.st0{fill:none;stroke:#F1A63B;stroke-width:2;stroke-linecap:round;stroke-linejoin:round;stroke-miterlimit:10;}
	.st1{fill:#F1A63B;}
	.st2{fill:none;stroke:#B7B7B7;stroke-width:2;stroke-linecap:round;stroke-linejoin:round;stroke-miterlimit:10;}
	.st3{fill:none;stroke:#D35400;stroke-width:2;stroke-linecap:round;stroke-linejoin:round;stroke-miterlimit:10;}
	.st4{fill:#B7B7B7;stroke:#B7B7B7;stroke-miterlimit:10;}
	.st5{fill:#D35400;stroke:#D35400;stroke-width:2;stroke-linecap:round;stroke-linejoin:round;stroke-miterlimit:10;}
	.st6{fill:url(#SVGID_1_);}
	.st7{fill:#FFFFFF;}
	.st8{fill:#D35400;}
	.st9{fill:#B7B7B7;}
	.st10{fill:none;stroke:#FFFFFF;stroke-width:2;stroke-linecap:round;stroke-linejoin:round;stroke-miterlimit:10;}
	.st11{fill:#FFFFFF;stroke:#FFFFFF;stroke-width:2;stroke-linecap:round;stroke-linejoin:round;stroke-miterlimit:10;}
	.st12{fill:#FFFFFF;stroke:#FFFFFF;stroke-width:2;stroke-miterlimit:10;}
	.st13{fill:#E75A24;}
</style>
<g>
	<linearGradient id="SVGID_1_" gradientUnits="userSpaceOnUse" x1="0" y1="30" x2="60" y2="30">
		<stop  offset="0" style="stop-color:#F1A63B"/>
		<stop  offset="1" style="stop-color:#E75A24"/>
	</linearGradient>
	<path class="st6" d="M56,60H4c-2.2,0-4-1.8-4-4V4c0-2.2,1.8-4,4-4h52c2.2,0,4,1.8,4,4v52C60,58.2,58.2,60,56,60z"/>
	<g>
		<polygon class="st7" points="37.7,32 32,19.5 26.1,19.5 26.1,40.5 30.9,40.5 30.9,26.9 35.9,38.4 39.4,38.4 44.5,26.9 44.5,40.5 
			49.2,40.5 49.2,19.5 43.4,19.5 		"/>
		<polygon class="st7" points="30.4,19.5 24.2,19.5 16.1,28.6 16.1,19.5 10.8,19.5 10.8,40.5 16.1,40.5 16.1,35.4 18.1,33.2 
			24.5,40.5 30.9,40.5 21.5,29.4 		"/>
	</g>
</g>
</svg>
